<?xml version="1.0" encoding="UTF-8" standalone="no"?>
<!-- Created with Inkscape (http://www.inkscape.org/) -->

<svg
   width="74.604637mm"
   height="93.608864mm"
   viewBox="0 0 74.604637 93.608863"
   version="1.1"
   id="svg40"
   inkscape:version="1.1.2 (0a00cf5339, 2022-02-04)"
   sodipodi:docname="legacy-lambda.svg"
   xmlns:inkscape="http://www.inkscape.org/namespaces/inkscape"
   xmlns:sodipodi="http://sodipodi.sourceforge.net/DTD/sodipodi-0.dtd"
   xmlns="http://www.w3.org/2000/svg"
   xmlns:svg="http://www.w3.org/2000/svg">
  <sodipodi:namedview
     id="namedview42"
     pagecolor="#ffffff"
     bordercolor="#666666"
     borderopacity="1.0"
     inkscape:pageshadow="2"
     inkscape:pageopacity="0.0"
     inkscape:pagecheckerboard="0"
     inkscape:document-units="mm"
     showgrid="false"
     fit-margin-top="0"
     fit-margin-left="0"
     fit-margin-right="0"
     fit-margin-bottom="0"
     showborder="false"
     inkscape:zoom="3.1108586"
     inkscape:cx="127.13532"
     inkscape:cy="230.48299"
     inkscape:window-width="3840"
     inkscape:window-height="2091"
     inkscape:window-x="0"
     inkscape:window-y="0"
     inkscape:window-maximized="1"
     inkscape:current-layer="g10-3"
     inkscape:showpageshadow="false"
     showguides="false"
     inkscape:object-nodes="false"
     inkscape:snap-others="false"
     inkscape:snap-grids="false"
     inkscape:snap-nodes="false"
     inkscape:snap-bbox="true"
     inkscape:snap-bbox-midpoints="false"
     inkscape:bbox-paths="false"
     inkscape:bbox-nodes="true">
    <inkscape:grid
       type="xygrid"
       id="grid34809"
       originx="6.8491885"
       originy="3.7452777" />
    <sodipodi:guide
       position="-87.041621,95.867383"
       orientation="0,252.45633"
       id="guide35537" />
    <sodipodi:guide
       position="66.795739,96.585671"
       orientation="370.72323,0"
       id="guide35539" />
    <sodipodi:guide
       position="-48.366755,3.6182336e-06"
       orientation="0,-252.45633"
       id="guide35541" />
    <sodipodi:guide
       position="1.4762808e-07,-1.5015199"
       orientation="-370.72323,0"
       id="guide35543" />
  </sodipodi:namedview>
  <defs
     id="defs37" />
  <g
     inkscape:label="Layer 1"
     inkscape:groupmode="layer"
     id="layer1"
     transform="translate(-23.114085,-45.61965)">
    <g
       transform="matrix(0.26458333,0,0,0.26458333,36.647512,140.20956)"
       id="g10">
      <g
         transform="translate(-39.97362,-156.00003)"
         id="g10-3"
         style="fill:#c8c8c8;fill-opacity:1;stroke:#000000;stroke-width:3.77953;stroke-linejoin:round;stroke-miterlimit:4;stroke-dasharray:none;stroke-opacity:1">
        <path
           d="M 47.23,-185.46 C 147.05,-75.75 79.06,9.4 16.6,133.69 h 51.06 c 28.15,-44.92 50.23,-95.88 70.53,-148.64 19.85,47.25 39.33,94.83 52.02,148.64 h 51.07 C 203.54,3.05 159.03,-86.86 98.3,-185.46 Z"
           fill="#ffffff"
           stroke="#000000"
           stroke-width="0"
           id="path8"
           style="fill:#c8c8c8;fill-opacity:1;stroke:none;stroke-width:3.77953;stroke-linejoin:round;stroke-miterlimit:4;stroke-dasharray:none;stroke-opacity:1" />
        <text
           xml:space="preserve"
           style="font-style:normal;font-variant:normal;font-weight:900;font-stretch:normal;font-size:16px;line-height:1.25;font-family:'Iosevka SS04';-inkscape-font-specification:'Iosevka SS04 Heavy';fill:#000000;fill-opacity:1;stroke:none"
           x="201.30328"
           y="-5.0314102"
           id="text70231-88"><tspan
             sodipodi:role="line"
             id="tspan70229-43"
             x="201.30328"
             y="-5.0314102"
             style="font-style:normal;font-variant:normal;font-weight:900;font-stretch:normal;font-size:16px;font-family:'Iosevka SS04';-inkscape-font-specification:'Iosevka SS04 Heavy'">C41</tspan></text>
        <text
           xml:space="preserve"
           style="font-style:normal;font-variant:normal;font-weight:900;font-stretch:normal;font-size:16px;line-height:1.25;font-family:'Iosevka SS04';-inkscape-font-specification:'Iosevka SS04 Heavy';fill:#000000;fill-opacity:1;stroke:none"
           x="167.3195"
           y="-81.435905"
           id="text70231-1"><tspan
             sodipodi:role="line"
             id="tspan70229-49"
             x="167.3195"
             y="-81.435905"
             style="font-style:normal;font-variant:normal;font-weight:900;font-stretch:normal;font-size:16px;font-family:'Iosevka SS04';-inkscape-font-specification:'Iosevka SS04 Heavy'">C42</tspan></text>
        <text
           xml:space="preserve"
           style="font-style:normal;font-variant:normal;font-weight:900;font-stretch:normal;font-size:16px;line-height:1.25;font-family:'Iosevka SS04';-inkscape-font-specification:'Iosevka SS04 Heavy';fill:#000000;fill-opacity:1;stroke:none"
           x="102.31786"
           y="95.590179"
           id="text70231-2"><tspan
             sodipodi:role="line"
             id="tspan70229-54"
             x="102.31786"
             y="95.590179"
             style="font-style:normal;font-variant:normal;font-weight:900;font-stretch:normal;font-size:16px;font-family:'Iosevka SS04';-inkscape-font-specification:'Iosevka SS04 Heavy'">C21</tspan></text>
      </g>
      <text
         xml:space="preserve"
         style="font-style:normal;font-variant:normal;font-weight:900;font-stretch:normal;font-size:26.6667px;line-height:1.25;font-family:'Iosevka SS04';-inkscape-font-specification:'Iosevka SS04 Heavy';fill:#000000;fill-opacity:1;stroke:none"
         x="-29.911501"
         y="-345.90515"
         id="text6363"><tspan
           sodipodi:role="line"
           id="tspan6361"
           x="-29.911501"
           y="-345.90515"
           style="font-style:normal;font-variant:normal;font-weight:900;font-stretch:normal;font-size:26.6667px;font-family:'Iosevka SS04';-inkscape-font-specification:'Iosevka SS04 Heavy'">L1</tspan></text>
      <text
         xml:space="preserve"
         style="font-style:normal;font-variant:normal;font-weight:900;font-stretch:normal;font-size:26.6667px;line-height:1.25;font-family:'Iosevka SS04';-inkscape-font-specification:'Iosevka SS04 Heavy';fill:#000000;fill-opacity:1;stroke:none"
         x="-53.709965"
         y="2.2920952"
         id="text6363-6"><tspan
           sodipodi:role="line"
           id="tspan6361-7"
           x="-53.709965"
           y="2.2920952"
           style="font-style:normal;font-variant:normal;font-weight:900;font-stretch:normal;font-size:26.6667px;font-family:'Iosevka SS04';-inkscape-font-specification:'Iosevka SS04 Heavy'">L2</tspan></text>
      <text
         xml:space="preserve"
         style="font-style:normal;font-variant:normal;font-weight:900;font-stretch:normal;font-size:26.6667px;line-height:1.25;font-family:'Iosevka SS04';-inkscape-font-specification:'Iosevka SS04 Heavy';fill:#000000;fill-opacity:1;stroke:none"
         x="34.55571"
         y="2.0787616"
         id="text6363-5"><tspan
           sodipodi:role="line"
           id="tspan6361-3"
           x="34.55571"
           y="2.0787616"
           style="font-style:normal;font-variant:normal;font-weight:900;font-stretch:normal;font-size:26.6667px;font-family:'Iosevka SS04';-inkscape-font-specification:'Iosevka SS04 Heavy'">L3</tspan></text>
      <text
         xml:space="preserve"
         style="font-style:normal;font-variant:normal;font-weight:900;font-stretch:normal;font-size:26.6667px;line-height:1.25;font-family:'Iosevka SS04';-inkscape-font-specification:'Iosevka SS04 Heavy';fill:#000000;fill-opacity:1;stroke:none"
         x="117.83465"
         y="2.0787616"
         id="text6363-5-5"><tspan
           sodipodi:role="line"
           id="tspan6361-3-6"
           x="117.83465"
           y="2.0787616"
           style="font-style:normal;font-variant:normal;font-weight:900;font-stretch:normal;font-size:26.6667px;font-family:'Iosevka SS04';-inkscape-font-specification:'Iosevka SS04 Heavy'">L5</tspan></text>
      <text
         xml:space="preserve"
         style="font-style:normal;font-variant:normal;font-weight:900;font-stretch:normal;font-size:26.6667px;line-height:1.25;font-family:'Iosevka SS04';-inkscape-font-specification:'Iosevka SS04 Heavy';fill:#000000;fill-opacity:1;stroke:none"
         x="82.860123"
         y="-176.26688"
         id="text6363-5-2"><tspan
           sodipodi:role="line"
           id="tspan6361-3-9"
           x="82.860123"
           y="-176.26688"
           style="font-style:normal;font-variant:normal;font-weight:900;font-stretch:normal;font-size:26.6667px;font-family:'Iosevka SS04';-inkscape-font-specification:'Iosevka SS04 Heavy'">L4</tspan></text>
      <text
         xml:space="preserve"
         style="font-style:normal;font-variant:normal;font-weight:900;font-stretch:normal;font-size:26.6667px;line-height:1.25;font-family:'Iosevka SS04';-inkscape-font-specification:'Iosevka SS04 Heavy';fill:#000000;fill-opacity:1;stroke:none"
         x="205.64702"
         y="2.0787616"
         id="text6363-5-1"><tspan
           sodipodi:role="line"
           id="tspan6361-3-2"
           x="205.64702"
           y="2.0787616"
           style="font-style:normal;font-variant:normal;font-weight:900;font-stretch:normal;font-size:26.6667px;font-family:'Iosevka SS04';-inkscape-font-specification:'Iosevka SS04 Heavy'">L6</tspan></text>
      <text
         xml:space="preserve"
         style="font-style:normal;font-variant:normal;font-weight:900;font-stretch:normal;font-size:26.6667px;line-height:1.25;font-family:'Iosevka SS04';-inkscape-font-specification:'Iosevka SS04 Heavy';fill:#000000;fill-opacity:1;stroke:none"
         x="70.154182"
         y="-345.69183"
         id="text6363-5-7"><tspan
           sodipodi:role="line"
           id="tspan6361-3-0"
           x="70.154182"
           y="-345.69183"
           style="font-style:normal;font-variant:normal;font-weight:900;font-stretch:normal;font-size:26.6667px;font-family:'Iosevka SS04';-inkscape-font-specification:'Iosevka SS04 Heavy'">L7</tspan></text>
      <text
         xml:space="preserve"
         style="font-style:normal;font-variant:normal;font-weight:900;font-stretch:normal;font-size:16px;line-height:1.25;font-family:'Iosevka SS04';-inkscape-font-specification:'Iosevka SS04 Heavy';fill:#000000;fill-opacity:1;stroke:none"
         x="76.065727"
         y="-221.60269"
         id="text70231"><tspan
           sodipodi:role="line"
           id="tspan70229"
           x="76.065727"
           y="-221.60269"
           style="font-style:normal;font-variant:normal;font-weight:900;font-stretch:normal;font-size:16px;font-family:'Iosevka SS04';-inkscape-font-specification:'Iosevka SS04 Heavy'">C11</tspan></text>
      <text
         xml:space="preserve"
         style="font-style:normal;font-variant:normal;font-weight:900;font-stretch:normal;font-size:16px;line-height:1.25;font-family:'Iosevka SS04';-inkscape-font-specification:'Iosevka SS04 Heavy';fill:#000000;fill-opacity:1;stroke:none"
         x="5.9069953"
         y="-139.42282"
         id="text70231-4"><tspan
           sodipodi:role="line"
           id="tspan70229-5"
           x="5.9069953"
           y="-139.42282"
           style="font-style:normal;font-variant:normal;font-weight:900;font-stretch:normal;font-size:16px;font-family:'Iosevka SS04';-inkscape-font-specification:'Iosevka SS04 Heavy'">C12</tspan></text>
      <text
         xml:space="preserve"
         style="font-style:normal;font-variant:normal;font-weight:900;font-stretch:normal;font-size:16px;line-height:1.25;font-family:'Iosevka SS04';-inkscape-font-specification:'Iosevka SS04 Heavy';fill:#000000;fill-opacity:1;stroke:none"
         x="76.57016"
         y="-96.738892"
         id="text70231-7"><tspan
           sodipodi:role="line"
           id="tspan70229-4"
           x="76.57016"
           y="-96.738892"
           style="font-style:normal;font-variant:normal;font-weight:900;font-stretch:normal;font-size:16px;font-family:'Iosevka SS04';-inkscape-font-specification:'Iosevka SS04 Heavy'">C22</tspan></text>
      <text
         xml:space="preserve"
         style="font-style:normal;font-variant:normal;font-weight:900;font-stretch:normal;font-size:16px;line-height:1.25;font-family:'Iosevka SS04';-inkscape-font-specification:'Iosevka SS04 Heavy';fill:#000000;fill-opacity:1;stroke:none"
         x="91.871605"
         y="-112.925"
         id="text70231-43"><tspan
           sodipodi:role="line"
           id="tspan70229-0"
           x="91.871605"
           y="-112.925"
           style="font-style:normal;font-variant:normal;font-weight:900;font-stretch:normal;font-size:16px;font-family:'Iosevka SS04';-inkscape-font-specification:'Iosevka SS04 Heavy'">C31</tspan></text>
      <text
         xml:space="preserve"
         style="font-style:normal;font-variant:normal;font-weight:900;font-stretch:normal;font-size:16px;line-height:1.25;font-family:'Iosevka SS04';-inkscape-font-specification:'Iosevka SS04 Heavy';fill:#000000;fill-opacity:1;stroke:none"
         x="104.93572"
         y="-70.002007"
         id="text70231-8"><tspan
           sodipodi:role="line"
           id="tspan70229-6"
           x="104.93572"
           y="-70.002007"
           style="font-style:normal;font-variant:normal;font-weight:900;font-stretch:normal;font-size:16px;font-family:'Iosevka SS04';-inkscape-font-specification:'Iosevka SS04 Heavy'">C32</tspan></text>
    </g>
  </g>
</svg>
